{
    "prepare_queue": {
        "installed": [],
        "uninstalled": []
    },
    "config_munge": {
        "files": {}
    },
    "installed_plugins": {
        "cordova-plugin-app-version": {
            "PACKAGE_NAME": "test.tvend"
        },
        "cordova-plugin-dialogs": {
            "PACKAGE_NAME": "test.tvend"
        },
        "cordova-plugin-network-information": {
            "PACKAGE_NAME": "test.tvend"
        },
        "cordova-plugin-statusbar": {
            "PACKAGE_NAME": "test.tvend"
        },
        "cordova-plugin-vibration": {
            "PACKAGE_NAME": "test.tvend"
        },
        "cordova-plugin-whitelist": {
            "PACKAGE_NAME": "test.tvend"
        },
        "cordova-sqlite-storage": {
            "PACKAGE_NAME": "test.tvend"
        },
        "phonegap-plugin-barcodescanner": {
            "PACKAGE_NAME": "test.tvend"
        }
    },
    "dependent_plugins": {}
}