{
    "cordova-plugin-whitelist": {
        "source": {
            "type": "registry",
            "id": "cordova-plugin-whitelist@1"
        },
        "is_top_level": true,
        "variables": {}
    },
    "cordova-plugin-network-information": {
        "source": {
            "type": "registry",
            "id": "cordova-plugin-network-information@~1.2.0"
        },
        "is_top_level": true,
        "variables": {}
    },
    "cordova-plugin-statusbar": {
        "source": {
            "type": "registry",
            "id": "cordova-plugin-statusbar@~2.1.0"
        },
        "is_top_level": true,
        "variables": {}
    },
    "cordova-sqlite-storage": {
        "source": {
            "type": "registry",
            "id": "cordova-sqlite-storage"
        },
        "is_top_level": true,
        "variables": {}
    },
    "cordova-plugin-dialogs": {
        "source": {
            "type": "registry",
            "id": "cordova-plugin-dialogs@~1.2.0"
        },
        "is_top_level": true,
        "variables": {}
    },
    "cordova-plugin-vibration": {
        "source": {
            "type": "registry",
            "id": "cordova-plugin-vibration@~2.1.0"
        },
        "is_top_level": true,
        "variables": {}
    },
    "cordova-plugin-app-version": {
        "source": {
            "type": "registry",
            "id": "cordova-plugin-app-version"
        },
        "is_top_level": true,
        "variables": {}
    },
    "phonegap-plugin-barcodescanner": {
        "source": {
            "type": "git",
            "url": "https://github.com/phonegap/phonegap-plugin-barcodescanner.git",
            "subdir": "."
        },
        "is_top_level": true,
        "variables": {}
    }
}